{
	"format_version": "1.12",
	"minecraft:recipe_shapeless": {
		"description": {
			"identifier": "porkchop_master_race:cooked_porkchop_from_cooked_rabbit"
		},
		"tags": ["crafting_table"],
		"ingredients": [
			{
				"item": "minecraft:cooked_rabbit"
			}
		],
		"result": {
			"item": "minecraft:cooked_porkchop"
		}
	}
}
